…
results <- map_df(mu_values, simulate_mu)

results <- results %>%
  mutate(reject = p_value < 0.05)
results 
```

    ## # A tibble: 35,000 × 4
    ##    mu_true   mu_hat p_value reject
    ##      <int>    <dbl>   <dbl> <lgl> 
    ##  1       0  0.837    0.391  FALSE 
    ##  2       0  0.561    0.533  FALSE 
    ##  3       0 -0.0805   0.921  FALSE 
    ##  4       0 -0.908    0.215  FALSE 
    ##  5       0  0.103    0.904  FALSE 
    ##  6       0 -0.356    0.731  FALSE 
    ##  7       0  0.347    0.776  FALSE 
    ##  8       0 -0.450    0.677  FALSE 
    ##  9       0  0.00122  0.999  FALSE 
    ## 10       0  1.82     0.0409 TRUE  
    ## # ℹ 34,990 more rows
…
    ## Warning: There was 1 warning in `mutate()`.
    ## ℹ In argument: `test = map2(unsolved, total, ~prop.test(.x, .y) %>% tidy())`.
    ## Caused by warning in `prop.test()`:
    ## ! Chi-squared approximation may be incorrect

``` r
city_results
```

    ## # A tibble: 51 × 5
    ##    city_state         estimate conf.low conf.high total
    ##    <chr>                 <dbl>    <dbl>     <dbl> <int>
    ##  1 IL, Chicago           0.736    0.724     0.747  5535
    ##  2 LA, New Orleans       0.649    0.623     0.673  1434
    ##  3 MD, Baltimore         0.646    0.628     0.663  2827
    ##  4 CA, San Bernardino    0.618    0.558     0.675   275
    ##  5 NY, Buffalo           0.612    0.569     0.654   521
    ##  6 FL, Miami             0.605    0.569     0.640   744
    ##  7 CA, Stockton          0.599    0.552     0.645   444
    ##  8 MI, Detroit           0.588    0.569     0.608  2519
    ##  9 AZ, Phoenix           0.551    0.518     0.584   914
    ## 10 CO, Denver            0.542    0.485     0.598   312
    ## # ℹ 41 more rows
…
